{
    "id": 77777777,
    "name": "Media Manager",
    "authors": [{
        "first_name": "Milan",
        "last_name": "Zivlak",
        "email": "milan@mail.com",
        "web_page": "INVALID URL"
    }],
    "version": "1.0.0",
    "core_version": "1.0.0",
    "category": "editor",
    "licence": "MIT",
    "description": "Media Manager",
    "web_page": "INVALID URL",
    "extensions": ["mp3", "mp4"]
}